<?xml version="1.0" encoding="UTF-8" standalone="no"?>
<!-- Created with Inkscape (http://www.inkscape.org/) -->

<svg
   xmlns:dc="http://purl.org/dc/elements/1.1/"
   xmlns:cc="http://creativecommons.org/ns#"
   xmlns:rdf="http://www.w3.org/1999/02/22-rdf-syntax-ns#"
   xmlns:svg="http://www.w3.org/2000/svg"
   xmlns="http://www.w3.org/2000/svg"
   xmlns:sodipodi="http://sodipodi.sourceforge.net/DTD/sodipodi-0.dtd"
   xmlns:inkscape="http://www.inkscape.org/namespaces/inkscape"
   width="30mm"
   height="30mm"
   viewBox="0 0 30 30"
   version="1.1"
   id="svg8"
   inkscape:version="0.92.3 (2405546, 2018-03-11)"
   sodipodi:docname="exagone.svg">
  <defs
     id="defs2" />
  <sodipodi:namedview
     id="base"
     pagecolor="#ffffff"
     bordercolor="#666666"
     borderopacity="1.0"
     inkscape:pageopacity="0.0"
     inkscape:pageshadow="2"
     inkscape:zoom="3.959798"
     inkscape:cx="201.45287"
     inkscape:cy="-26.494306"
     inkscape:document-units="mm"
     inkscape:current-layer="layer1"
     showgrid="true"
     inkscape:showpageshadow="false"
     inkscape:snap-nodes="true"
     inkscape:snap-bbox="true"
     inkscape:bbox-nodes="true"
     inkscape:snap-center="false"
     inkscape:snap-global="true"
     inkscape:window-width="1600"
     inkscape:window-height="845"
     inkscape:window-x="0"
     inkscape:window-y="27"
     inkscape:window-maximized="1">
    <inkscape:grid
       type="xygrid"
       id="grid815"
       units="mm"
       spacingx="1"
       spacingy="1"
       empcolor="#ff893f"
       empopacity="0.25098039" />
  </sodipodi:namedview>
  <metadata
     id="metadata5">
    <rdf:RDF>
      <cc:Work
         rdf:about="">
        <dc:format>image/svg+xml</dc:format>
        <dc:type
           rdf:resource="http://purl.org/dc/dcmitype/StillImage" />
        <dc:title></dc:title>
      </cc:Work>
    </rdf:RDF>
  </metadata>
  <g
     inkscape:label="Calque 1"
     inkscape:groupmode="layer"
     id="layer1"
     transform="translate(0,-267)">
    <circle
       style="opacity:1;fill:#ababab;fill-opacity:0.48837208;stroke:none;stroke-width:0.99187499;stroke-miterlimit:4;stroke-dasharray:5.95124993, 0.99187499;stroke-dashoffset:0;stroke-opacity:0.37209305"
       id="path825"
       cx="15"
       cy="282"
       r="15" />
    <path
       sodipodi:type="star"
       style="opacity:1;fill:#ababab;fill-opacity:1;stroke:none;stroke-width:3.17399979;stroke-miterlimit:4;stroke-dasharray:19.04399976, 3.17399997;stroke-dashoffset:0;stroke-opacity:1"
       id="path819"
       sodipodi:sides="6"
       sodipodi:cx="15"
       sodipodi:cy="282"
       sodipodi:r1="15"
       sodipodi:r2="7.5"
       sodipodi:arg1="-1.5707963"
       sodipodi:arg2="-1.0471975"
       inkscape:flatsided="true"
       inkscape:rounded="0"
       inkscape:randomized="0"
       d="m 15,267 12.990381,7.5 0,15 L 15,297 2.0096187,289.5 l 4e-7,-15 z"
       inkscape:transform-center-y="-3.7500021" />
    <circle
       style="opacity:1;fill:#ababab;fill-opacity:0.48837208;stroke:none;stroke-width:0.99187499;stroke-miterlimit:4;stroke-dasharray:5.95124999, 0.991875;stroke-dashoffset:0;stroke-opacity:0.37209305"
       id="path825-3"
       cx="29.990381"
       cy="256"
       r="15" />
    <path
       sodipodi:type="star"
       style="opacity:1;fill:#ababab;fill-opacity:1;stroke:none;stroke-width:3.17399979;stroke-miterlimit:4;stroke-dasharray:19.04399997, 3.174;stroke-dashoffset:0;stroke-opacity:1"
       id="path819-6"
       sodipodi:sides="6"
       sodipodi:cx="29.990381"
       sodipodi:cy="256"
       sodipodi:r1="15"
       sodipodi:r2="7.5"
       sodipodi:arg1="-1.5707963"
       sodipodi:arg2="-1.0471975"
       inkscape:flatsided="true"
       inkscape:rounded="0"
       inkscape:randomized="0"
       d="m 29.990382,241 12.99038,7.5 0,15 L 29.990381,271 17,263.5 l 0,-15 z"
       inkscape:transform-center-y="-3.7500021" />
    <circle
       style="opacity:1;fill:#ababab;fill-opacity:0.48837208;stroke:none;stroke-width:0.99187499;stroke-miterlimit:4;stroke-dasharray:5.95124999, 0.991875;stroke-dashoffset:0;stroke-opacity:0.37209305"
       id="path825-7"
       cx="45"
       cy="282"
       r="15" />
    <path
       sodipodi:type="star"
       style="opacity:1;fill:#ababab;fill-opacity:1;stroke:none;stroke-width:3.17399979;stroke-miterlimit:4;stroke-dasharray:19.04399997, 3.174;stroke-dashoffset:0;stroke-opacity:1"
       id="path819-5"
       sodipodi:sides="6"
       sodipodi:cx="45"
       sodipodi:cy="282"
       sodipodi:r1="15"
       sodipodi:r2="7.5"
       sodipodi:arg1="-1.5707963"
       sodipodi:arg2="-1.0471975"
       inkscape:flatsided="true"
       inkscape:rounded="0"
       inkscape:randomized="0"
       d="m 45,267 12.990381,7.5 0,15 L 45,297 l -12.990381,-7.5 0,-15 z"
       inkscape:transform-center-y="-3.7500021" />
    <path
       sodipodi:type="star"
       style="opacity:1;fill:#ababab;fill-opacity:0.44518271;stroke:none;stroke-width:3.17399979;stroke-miterlimit:4;stroke-dasharray:19.04399997, 3.17399999999999993;stroke-dashoffset:0;stroke-opacity:1"
       id="path819-3"
       sodipodi:sides="6"
       sodipodi:cx="15"
       sodipodi:cy="317"
       sodipodi:r1="15"
       sodipodi:r2="7.5"
       sodipodi:arg1="-1.5707963"
       sodipodi:arg2="-1.0471975"
       inkscape:flatsided="true"
       inkscape:rounded="0"
       inkscape:randomized="0"
       d="m 15,302 12.990381,7.5 -1e-6,15 -12.990381,7.5 -12.9903807,-7.5 4e-7,-15 z"
       inkscape:transform-center-y="-3.7500021" />
    <path
       inkscape:transform-center-y="-3.5000019"
       d="m 15,303 12.124356,7 -10e-7,14 L 15,331 2.8756442,324 l 3e-7,-14 z"
       inkscape:randomized="0"
       inkscape:rounded="0"
       inkscape:flatsided="true"
       sodipodi:arg2="-1.0471975"
       sodipodi:arg1="-1.5707963"
       sodipodi:r2="7"
       sodipodi:r1="14"
       sodipodi:cy="317"
       sodipodi:cx="15"
       sodipodi:sides="6"
       id="path874"
       style="opacity:1;fill:#ababab;fill-opacity:0.44518271;stroke:none;stroke-width:2.96239972;stroke-miterlimit:4;stroke-dasharray:17.77439997, 2.9624;stroke-dashoffset:0;stroke-opacity:1"
       sodipodi:type="star" />
    <path
       style="opacity:1;fill:#ababab;fill-opacity:0.44518271;stroke:none;stroke-width:11.99621964;stroke-miterlimit:4;stroke-dasharray:71.97732351, 11.99622059;stroke-dashoffset:0;stroke-opacity:1"
       d="M 227.24219 132.2832 L 178.14453 160.63086 L 178.14453 217.32227 L 227.24219 245.66992 L 276.33984 217.32227 L 276.33984 160.63086 L 227.24219 132.2832 z M 227.24219 136.0625 L 273.06641 162.51953 L 273.06641 215.43359 L 227.24219 241.89062 L 181.41797 215.43359 L 181.41797 162.51953 L 227.24219 136.0625 z "
       id="path819-3-5"
       transform="matrix(0.26458333,0,0,0.26458333,0,267)" />
  </g>
</svg>
